DateTime                  Name            Status               Action
1/5/2018 3:17:27 PM       Lee             Success              Login
DateTime                  Name            Status               Action
1/5/2018 3:18:31 PM       Lee             Success              Login
1/5/2018 3:19:32 PM       Lee             Success              Login
1/5/2018 3:20:01 PM       Lee             Success              Add New Download - a
1/5/2018 3:21:32 PM       Lee             Success              Login
1/5/2018 3:21:54 PM       Lee             Success              Add New Download - zz
1/5/2018 3:25:26 PM       Lee             Success              Login
1/5/2018 3:25:51 PM       Lee             Success              Edit Download - Podcast, zzbb
1/5/2018 3:30:39 PM       Lee             Success              Login
1/5/2018 3:30:54 PM       Lee             Success              Edit Download - Podcast, zzbb
17/5/2018 6:01:44 PM      Lee             Success              Login
17/5/2018 6:02:50 PM      Lee             Success              Edit Fund - Apex Malaysia Growth Trust (AMGT)
17/5/2018 6:03:36 PM      Lee             Success              Edit Fund - Apex Malaysia Growth Trust (AMGT)
18/5/2018 9:55:08 AM      Lee             Success              Login
18/5/2018 9:56:31 AM      Lee             Success              Login
18/5/2018 9:57:39 AM      Lee             Success              Add New News - Don't Give Up
18/5/2018 2:23:08 PM      Lee             Success              Login
18/5/2018 2:31:01 PM      Lee             Success              Login
18/5/2018 2:33:58 PM      Lee             Success              Login
18/5/2018 2:44:28 PM      Lee             Success              Login
18/5/2018 4:09:12 PM      Lee             Success              Login
18/5/2018 5:03:51 PM      Lee             Success              Login
18/5/2018 6:12:13 PM      Lee             Success              Login
18/5/2018 6:17:17 PM      Lee             Success              Login
18/5/2018 6:18:14 PM      Lee             Success              Login
18/5/2018 6:18:48 PM      Lee             Success              Login
18/5/2018 6:18:51 PM      Lee             Success              Login
21/5/2018 10:31:53 AM     Lee             Success              Login
21/5/2018 10:40:26 AM     Lee             Success              Login
21/5/2018 10:43:47 AM     Lee             Success              Login
21/5/2018 10:44:54 AM     Lee             Success              Login
21/5/2018 11:01:33 AM     Lee             Success              Login
21/5/2018 11:02:36 AM     Lee             Success              Login
21/5/2018 11:06:07 AM     Lee             Success              Login
21/5/2018 11:07:11 AM     Lee             Success              Login
21/5/2018 11:08:38 AM     Lee             Success              Login
21/5/2018 11:10:16 AM     Lee             Success              Add New Fund - 12321
21/5/2018 11:14:41 AM     Lee             Success              Login
21/5/2018 11:15:21 AM     Lee             Success              Login
21/5/2018 11:15:21 AM     Lee             Success              Login
21/5/2018 11:15:54 AM     Lee             Success              Login
21/5/2018 11:17:47 AM     Lee             Success              Login
21/5/2018 11:22:53 AM     Lee             Success              Edit Fund - 12321
21/5/2018 11:23:18 AM     Lee             Success              Login
21/5/2018 11:24:44 AM     Lee             Success              Login
21/5/2018 11:39:53 AM     Lee             Success              Login
21/5/2018 11:40:30 AM     Lee             Success              Edit Fund - 12321
21/5/2018 11:44:44 AM     Lee             Success              Login
21/5/2018 11:45:07 AM     Lee             Success              Edit Fund - Apex Malaysia Growth Trust (AMGT)
21/5/2018 11:45:26 AM     Lee             Success              Edit Fund - Apex Malaysia Growth Trust (AMGT)
21/5/2018 11:52:25 AM     Lee             Success              Login
21/5/2018 12:42:24 PM     Lee             Success              Login
21/5/2018 12:43:12 PM     Lee             Success              Login
21/5/2018 12:43:48 PM     Lee             Success              Login
21/5/2018 12:44:54 PM     Lee             Success              Login
21/5/2018 12:45:38 PM     Lee             Success              Login
21/5/2018 12:50:41 PM     Lee             Success              Login
21/5/2018 12:51:01 PM     Lee             Success              Edit Fund - 12321
21/5/2018 12:51:13 PM     Lee             Success              Edit Fund - 12321
21/5/2018 12:51:38 PM     Lee             Success              Edit Fund - Apex Malaysia Growth Trust (AMGT)
21/5/2018 12:52:26 PM     Lee             Success              Login
21/5/2018 4:11:48 PM      Lee             Success              Login
21/5/2018 4:13:49 PM      Lee             Success              Login
21/5/2018 4:15:27 PM      Lee             Success              Login
21/5/2018 4:24:52 PM      Lee             Success              Login
21/5/2018 4:28:24 PM      Lee             Success              Login
21/5/2018 4:30:38 PM      Lee             Success              Login
21/5/2018 4:31:19 PM      Lee             Success              Login
21/5/2018 4:31:49 PM      Lee             Success              Login
21/5/2018 5:03:40 PM      Lee             Success              Login
21/5/2018 5:09:56 PM      Lee             Success              Login
21/5/2018 5:11:12 PM      Lee             Success              Login
21/5/2018 5:17:00 PM      Lee             Success              Login
21/5/2018 5:17:22 PM      Lee             Success              Login
21/5/2018 5:18:42 PM      Lee             Success              Login
21/5/2018 5:19:06 PM      Lee             Success              Login
21/5/2018 5:19:41 PM      Lee             Success              Login
21/5/2018 5:22:06 PM      Lee             Success              Login
21/5/2018 5:24:50 PM      Lee             Success              Login
21/5/2018 5:25:18 PM      Lee             Success              Login
21/5/2018 5:26:39 PM      Lee             Success              Login
21/5/2018 5:35:11 PM      Lee             Success              Login
21/5/2018 5:37:05 PM      Lee             Success              Login
21/5/2018 5:44:11 PM      Lee             Success              Login
21/5/2018 5:55:14 PM      Lee             Success              Login
21/5/2018 5:56:17 PM      Lee             Success              Login
21/5/2018 5:59:40 PM      Lee             Success              Login
21/5/2018 6:01:14 PM      Lee             Success              Login
21/5/2018 6:13:25 PM      Lee             Success              Login
21/5/2018 6:13:25 PM      Lee             Success              Login
21/5/2018 6:14:24 PM      Lee             Success              Login
21/5/2018 6:15:22 PM      Lee             Success              Login
21/5/2018 6:22:51 PM      Lee             Success              Login
21/5/2018 6:27:42 PM      Lee             Success              Login
21/5/2018 6:28:16 PM      Lee             Success              Add New Fund - q
21/5/2018 6:31:28 PM      Lee             Success              Login
21/5/2018 6:33:03 PM      Lee             Success              Login
21/5/2018 6:34:12 PM      Lee             Success              Login
21/5/2018 6:37:46 PM      Lee             Success              Login
21/5/2018 6:39:01 PM      Lee             Success              Login
21/5/2018 6:46:08 PM      Lee             Success              Login
21/5/2018 6:46:27 PM      Lee             Success              Add New Fund - q
21/5/2018 6:47:09 PM      Lee             Success              Login
21/5/2018 6:48:32 PM      Lee             Success              Login
21/5/2018 6:50:18 PM      Lee             Success              Login
21/5/2018 6:50:58 PM      Lee             Success              Login
22/5/2018 10:59:27 AM     Lee             Success              Login
22/5/2018 11:01:27 AM     Lee             Success              Login
22/5/2018 11:01:35 AM     Lee             Success              Edit Fund - Apex Malaysia Growth Trust (AMGT)
22/5/2018 11:03:27 AM     Lee             Success              Login
22/5/2018 11:03:37 AM     Lee             Success              Edit Fund - Apex Malaysia Growth Trust (AMGT)
22/5/2018 11:05:18 AM     Lee             Success              Login
22/5/2018 11:05:55 AM     Lee             Success              Edit Fund - Apex Malaysia Growth Trust (AMGT)
22/5/2018 11:24:55 AM     Lee             Success              Login
22/5/2018 11:35:48 AM     Lee             Success              Login
22/5/2018 11:40:51 AM     Lee             Success              Login
22/5/2018 11:42:30 AM     Lee             Success              Login
22/5/2018 11:45:15 AM     Lee             Success              Login
22/5/2018 11:45:56 AM     Lee             Success              Login
22/5/2018 11:47:11 AM     Lee             Success              Login
22/5/2018 11:51:09 AM     Lee             Success              Login
22/5/2018 11:53:40 AM     Lee             Success              Login
22/5/2018 2:04:46 PM      Lee             Success              Login
22/5/2018 2:06:41 PM      Lee             Success              Login
22/5/2018 2:14:29 PM      Lee             Success              Login
22/5/2018 2:14:30 PM      Lee             Success              Login
22/5/2018 2:58:14 PM      Lee             Success              Login
22/5/2018 3:01:14 PM      Lee             Success              Login
22/5/2018 3:02:28 PM      Lee             Success              Login
22/5/2018 3:04:06 PM      Lee             Success              Login
22/5/2018 3:04:28 PM      Lee             Success              Login
22/5/2018 3:06:23 PM      Lee             Success              Login
22/5/2018 3:06:33 PM      Lee             Success              Edit Financial Info - 2015
22/5/2018 3:06:39 PM      Lee             Success              Edit Financial Info - 2015
22/5/2018 3:07:43 PM      Lee             Success              Edit Fund - Apex Malaysia Growth Trust (AMGT)
22/5/2018 3:07:50 PM      Lee             Success              Edit Fund - Apex Malaysia Growth Trust (AMGT)
22/5/2018 3:07:58 PM      Lee             Success              Edit Fund - Apex Malaysia Growth Trust (AMGT)
22/5/2018 3:11:22 PM      Lee             Success              Login
22/5/2018 3:13:11 PM      Lee             Success              Login
22/5/2018 3:13:27 PM      Lee             Success              Add New News - ASDASD
22/5/2018 3:15:27 PM      Lee             Success              Login
22/5/2018 3:15:47 PM      Lee             Success              Login
22/5/2018 3:23:37 PM      Lee             Success              Login
22/5/2018 3:24:07 PM      Lee             Success              Edit Fund - Apex Malaysia Growth Trust (AMGT)
22/5/2018 3:24:18 PM      Lee             Success              Edit Fund - Apex Malaysia Growth Trust (AMGT)
22/5/2018 3:24:29 PM      Lee             Success              Edit Fund - Apex Malaysia Growth Trust (AMGT)
22/5/2018 3:27:05 PM      Lee             Success              Login
22/5/2018 3:27:36 PM      Lee             Success              Login
22/5/2018 3:33:41 PM      Lee             Success              Login
22/5/2018 3:34:48 PM      Lee             Success              Edit Download - Podcast, Apex Positive on PNB Transformation
22/5/2018 3:35:54 PM      Lee             Success              Edit Download - Podcast, Malaysia Equities Worst Three Years In Last Thirty
22/5/2018 3:36:10 PM      Lee             Success              Edit Download - Podcast, Export Stocks Global Recovery
22/5/2018 3:36:28 PM      Lee             Success              Edit Download - Podcast, 2017 Themes Amid Poor Foreign Investor Sentiment
22/5/2018 3:36:46 PM      Lee             Success              Edit Download - Podcast, Political Risks Hangs Over Thai Market
22/5/2018 3:37:20 PM      Lee             Success              Edit Download - Podcast, Indonesia Amnesty Tax Under Collection Won't Derail Massive Infra Spend
22/5/2018 3:37:50 PM      Lee             Success              Edit Download - Articles, Growing Wealth in Tough Times
22/5/2018 3:38:03 PM      Lee             Success              Edit Download - Articles, New Way to Grow Your Money
22/5/2018 3:38:26 PM      Lee             Success              Edit Download - Articles, Bright Prospects for Emerging Market Equities
22/5/2018 3:38:41 PM      Lee             Success              Edit Download - Articles, The Edge Personal Wealth
22/5/2018 3:38:56 PM      Lee             Success              Edit Download - Articles, Malaysia Investment Outlook : How Will 2016 Fare For Investors?
22/5/2018 3:39:14 PM      Lee             Success              Edit Download - Articles, 'Perfect Storm' Gathering Pace
22/5/2018 3:39:34 PM      Lee             Success              Edit Download - Articles, Top Stock Picks for the Year
22/5/2018 3:39:49 PM      Lee             Success              Edit Download - Articles, It's All About Trust
23/5/2018 10:48:56 AM     Lee             Success              Login
23/5/2018 10:52:01 AM     Lee             Success              Login
23/5/2018 10:53:55 AM     Lee             Success              Login
23/5/2018 10:57:59 AM     Lee             Success              Login
23/5/2018 11:02:58 AM     Lee             Success              Login
23/5/2018 11:05:54 AM     Lee             Success              Login
23/5/2018 11:24:35 AM     Lee             Success              Login
23/5/2018 11:37:01 AM     Lee             Success              Login
23/5/2018 12:48:53 PM     Lee             Success              Login
23/5/2018 1:53:54 PM      Lee             Success              Login
23/5/2018 1:56:36 PM      Lee             Success              Login
23/5/2018 1:58:45 PM      Lee             Success              Login
23/5/2018 2:33:11 PM      Lee             Success              Login
23/5/2018 2:40:32 PM      Lee             Success              Login
23/5/2018 2:44:15 PM      Lee             Success              Login
23/5/2018 2:44:15 PM      Lee             Success              Login
23/5/2018 2:47:29 PM      Lee             Success              Login
23/5/2018 2:50:11 PM      Lee             Success              Login
23/5/2018 2:55:54 PM      Lee             Success              Login
23/5/2018 2:56:55 PM      Lee             Success              Login
23/5/2018 4:15:43 PM      Lee             Success              Login
23/5/2018 5:39:22 PM      Lee             Success              Login
24/5/2018 9:49:03 AM      Lee             Success              Login
24/5/2018 9:49:17 AM      Lee             Success              Add New Download - test
24/5/2018 9:51:10 AM      Lee             Success              Add New Download - test1
24/5/2018 10:03:39 AM     Lee             Success              Login
24/5/2018 10:07:10 AM     Lee             Success              Login
24/5/2018 10:08:09 AM     Lee             Success              Edit Fund - Apex Malaysia Growth Trust (AMGT)
24/5/2018 10:17:15 AM     Lee             Success              Edit Fund - Apex Dana Aslah (ADA)
24/5/2018 10:24:18 AM     Lee             Success              Login
24/5/2018 10:49:56 AM     Lee             Success              Login
24/5/2018 10:52:59 AM     Lee             Success              Login
24/5/2018 10:54:13 AM     Lee             Success              Login
24/5/2018 10:55:21 AM     Lee             Success              Add New Financial Info - 2020
24/5/2018 10:58:10 AM     Lee             Success              Login
24/5/2018 11:02:39 AM     Lee             Success              Login
24/5/2018 11:03:14 AM     Lee             Success              Login
24/5/2018 11:04:50 AM     Lee             Success              Login
24/5/2018 11:05:55 AM     Lee             Success              Login
24/5/2018 11:06:22 AM     Lee             Success              Login
24/5/2018 11:11:12 AM     Lee             Success              Login
24/5/2018 11:21:10 AM     Lee             Success              Login
24/5/2018 11:22:00 AM     Lee             Success              Add New Financial Info - 2014
