DateTime                  Name            Status               Action
10/21/2022 12:19:38 PM    Lee             Success              Login
11/21/2022 2:24:46 PM     Lee             Success              Login
11/21/2022 3:21:46 PM     Lee             Success              Login
11/22/2022 12:45:52 PM    Lee             Success              Login
11/22/2022 2:10:41 PM     Lee             Success              Login
11/22/2022 3:01:39 PM     Lee             Success              Login
11/22/2022 3:43:09 PM     Lee             Success              Login
11/22/2022 4:30:22 PM     Lee             Success              Login
11/22/2022 5:23:51 PM     Lee             Success              Login
11/22/2022 5:50:20 PM     Lee             Success              Login
11/22/2022 5:56:03 PM     Lee             Success              Login
11/22/2022 6:12:57 PM     Lee             Success              Login
